<svg width="48" height="48" viewBox="0 0 48 48" fill="none" xmlns="http://www.w3.org/2000/svg">
<g opacity="0.8">
<g clip-path="url(#clip0)">
<path d="M44.0481 23.2033C45.2977 16.4163 43.2578 7.08674 35.8248 2.64088C31.1302 0.00731261 25.5929 -0.689505 20.3921 0.698882C13.188 2.62532 7.89279 7.7948 6.22764 14.5271C5.85641 15.8926 5.69906 17.3074 5.76138 18.7211C5.84114 19.5982 6.00299 20.466 6.24489 21.3129C6.57038 22.3907 6.73158 23.5114 6.72287 24.6373C6.68932 25.9775 5.76616 27.368 4.95079 28.595C4.06193 29.934 3.29426 31.0903 3.73944 32.1568C4.16193 32.8797 4.90552 33.356 5.73879 33.4377C5.78678 33.4463 5.83533 33.4513 5.88406 33.4525C6.10674 33.4252 6.32999 33.4991 6.49241 33.6539C6.65483 33.8087 6.73936 34.0281 6.72287 34.2518C6.72287 35.9138 6.76429 36.7714 7.4508 37.1646C7.39091 37.2896 7.34911 37.4226 7.32662 37.5594C7.25764 38.0285 7.42662 38.5012 7.77723 38.8203C8.12587 39.158 8.56758 39.3835 9.04556 39.4677C9.07911 39.4755 9.11117 39.4814 9.14238 39.4888C9.16131 39.6077 9.16965 39.7281 9.1674 39.8485C9.16168 40.1459 9.14059 40.4429 9.10414 40.7381C8.97133 42.0174 8.78942 43.7696 11.3488 44.6061C11.8624 44.7497 12.3949 44.8144 12.928 44.7982C15.3514 44.6906 17.7465 44.2315 20.0379 43.4353C20.6995 44.589 21.0984 45.8745 21.2059 47.2002C21.2058 47.4123 21.2901 47.6157 21.4401 47.7658C21.5901 47.9157 21.7935 48 22.0057 48H41.9995C42.3415 47.9958 42.6425 47.773 42.7462 47.447C42.8514 47.1166 42.7369 46.7558 42.4604 46.5465C41.6329 45.9182 38.8926 39.2985 38.8083 36.9208C39.0499 36.3725 39.3734 35.7567 39.7565 35.0414C41.8427 31.3649 43.2936 27.3627 44.0481 23.2033ZM37.2029 36.8405C37.2232 38.7532 38.9475 43.807 40.4289 46.4006H22.7377C22.5385 45.1751 22.1415 43.9903 21.5621 42.8924C23.8793 41.9842 25.9204 40.8165 26.9002 39.5351C27.1668 39.1839 27.0992 38.6832 26.7488 38.4155C26.3984 38.1477 25.8975 38.214 25.6287 38.5635C23.3653 41.5251 13.9479 43.7736 11.8454 43.0859C10.5138 42.6505 10.5668 42.1393 10.695 40.9038C10.7374 40.5536 10.7614 40.2014 10.7668 39.8487C10.7668 38.5011 10.2233 38.0988 9.40629 37.9094C9.25212 37.8874 9.10489 37.8305 8.97593 37.743C9.13291 37.593 9.31107 37.4669 9.5047 37.3685C9.83854 37.2045 10.0153 36.8321 9.93113 36.4698C9.84697 36.1074 9.52438 35.8509 9.1524 35.8506C8.86346 35.8506 8.54247 35.8506 8.37377 35.8295C8.32297 35.3053 8.30573 34.7784 8.32222 34.2519C8.33787 33.6213 8.09813 33.0111 7.65746 32.5597C7.21678 32.1083 6.61237 31.8541 5.98153 31.8546C5.40515 31.7332 5.23017 31.5769 5.21536 31.5407C5.09896 31.2631 5.86982 30.1033 6.28378 29.48C7.17179 28.1429 8.27695 26.4786 8.32222 24.678C8.34462 23.6789 8.23347 22.6812 7.99167 21.7115C8.86374 20.9441 9.8929 20.3765 11.0073 20.0486C11.4044 19.9792 11.8125 20.0078 12.196 20.1317C12.6218 20.249 13.062 19.999 13.1793 19.5733C13.2967 19.1475 13.0466 18.7073 12.6209 18.59C11.9911 18.3962 11.3235 18.3596 10.6762 18.4833C9.54603 18.7712 8.48979 19.2958 7.57732 20.0223C7.46804 19.5564 7.3941 19.083 7.35614 18.6059C7.30197 17.3596 7.44508 16.1126 7.78023 14.911C9.32663 8.66088 14.0736 4.04398 20.8059 2.24369C25.5882 0.961114 30.6822 1.59626 35.0032 4.0139C41.7816 8.06772 43.6279 16.6526 42.4751 22.9135C41.7563 26.9119 40.3601 30.7582 38.3467 34.2866C37.9069 35.107 37.5274 35.8155 37.2532 36.4711C37.2069 36.5884 37.1896 36.7151 37.2029 36.8405Z" fill="#012E78"/>
<path d="M38.7902 25.0305C38.9047 23.7969 38.0602 22.6793 36.8421 22.4524L35.3106 20.3296C35.4045 20.1564 35.4764 19.9721 35.5248 19.781L37.0079 19.1879C37.6929 19.9677 38.8024 20.2172 39.7552 19.8057C40.708 19.3941 41.287 18.4154 41.1889 17.3821C41.0909 16.3488 40.338 15.4966 39.3247 15.2717L38.1232 12.875C38.9661 12.0162 39.0389 10.6646 38.293 9.72041C37.5472 8.77607 36.2156 8.53371 35.185 9.1547L33.8451 8.04232C33.9465 7.77728 33.9996 7.4963 34.0018 7.21252C34.004 6.23266 33.4088 5.35037 32.4994 4.98551C31.59 4.62056 30.55 4.84671 29.8743 5.55627L27.5032 4.96358C27.2192 3.93508 26.2865 3.22036 25.2195 3.2139C24.1525 3.20743 23.2111 3.91071 22.9147 4.93565L19.746 5.56939C18.9195 4.6781 17.5552 4.54999 16.5773 5.27192C15.5993 5.99376 15.3197 7.3351 15.9278 8.38759L14.3751 10.4554C13.2624 10.6565 12.4426 11.6092 12.4095 12.7394C12.3764 13.8695 13.1392 14.8685 14.2382 15.1344L15.5221 18.304C14.8177 18.9954 14.6097 20.0483 14.9983 20.9558C15.3868 21.8632 16.2924 22.4393 17.2789 22.4067C18.2654 22.3741 19.131 21.7396 19.4588 20.8085H23.7525C24.111 21.9112 25.2296 22.5789 26.3703 22.371L29.0253 26.4095C28.3442 27.1648 28.2147 28.2679 28.7025 29.1603C29.1902 30.0526 30.1887 30.5393 31.1921 30.3737C32.1954 30.2081 32.9846 29.4264 33.1597 28.4246L35.1417 26.8405C35.5188 27.0782 35.9553 27.2051 36.4011 27.2066C37.6402 27.2075 38.6759 26.2643 38.7902 25.0305ZM38.8005 16.8096C39.2005 16.8087 39.5395 17.1036 39.5943 17.4997C39.6491 17.8959 39.4027 18.2717 39.0176 18.3795C38.6325 18.4873 38.2269 18.2939 38.068 17.9268C38.0653 17.9195 38.0668 17.9119 38.0639 17.9046L38.0588 17.8968C38.0216 17.8055 38.0019 17.708 38.0006 17.6093C38.0012 17.1679 38.3589 16.81 38.8005 16.8096ZM35.6182 11.0487C35.695 10.6775 36.0222 10.4112 36.4013 10.4115C36.843 10.4115 37.201 10.7695 37.201 11.2112C37.201 11.6529 36.843 12.011 36.4013 12.011C36.3023 12.0097 36.2046 11.99 36.1129 11.9527L36.1061 11.9482C36.099 11.9453 36.0916 11.9468 36.0844 11.9441C35.7361 11.7941 35.5414 11.42 35.6182 11.0487ZM34.8226 13.0038L33.3448 16.6991L30.754 14.6265C31.1055 14.3267 31.3623 13.9313 31.4935 13.4883L34.6622 12.8545C34.7125 12.9079 34.7675 12.9553 34.8226 13.0038ZM33.9712 19.425C33.8635 19.8096 33.4883 20.0557 33.0926 20.0012C32.6969 19.9466 32.4021 19.6084 32.4025 19.2088C32.4029 18.7673 32.7607 18.4095 33.2022 18.4091C33.3012 18.4103 33.3989 18.4301 33.4906 18.4674L33.4974 18.4719C33.5046 18.4748 33.5122 18.4736 33.5194 18.4762C33.886 18.6352 34.0789 19.0402 33.9712 19.425ZM31.6027 6.41279C32.0444 6.41279 32.4024 6.77081 32.4024 7.21252C32.4024 7.65422 32.0443 8.01224 31.6027 8.01224C31.161 8.01224 30.8029 7.65422 30.8029 7.21252C30.8034 6.771 31.1611 6.41326 31.6027 6.41279ZM27.394 6.58486L29.2207 7.04157C29.2165 7.09911 29.2035 7.15403 29.2035 7.21261C29.2049 8.53708 30.2783 9.61047 31.6028 9.61188C32.0316 9.60963 32.452 9.49126 32.8189 9.26923L34.1588 10.3816C34.0574 10.6467 34.0043 10.9276 34.002 11.2114C34.002 11.2598 34.0135 11.305 34.0163 11.3527L31.4116 11.8737C31.0849 11.1134 30.3897 10.575 29.5719 10.4489L26.6437 7.52077C26.9688 7.27709 27.227 6.95516 27.394 6.58486ZM30.0032 12.8109C30.0032 13.2526 29.6452 13.6106 29.2035 13.6106C28.762 13.6101 28.4041 13.2524 28.4038 12.8109C28.4038 12.3692 28.7618 12.0111 29.2035 12.0111C29.6452 12.0111 30.0032 12.3692 30.0032 12.8109ZM25.2047 4.81325C25.6464 4.81325 26.0044 5.17127 26.0044 5.61297C26.0044 6.05468 25.6464 6.4127 25.2047 6.4127C24.763 6.4127 24.405 6.05468 24.405 5.61297C24.4053 5.17155 24.7632 4.81372 25.2047 4.81325ZM25.3632 8.5024L27.7643 10.9033C27.391 11.1853 27.1084 11.5704 26.9516 12.011H25.0573C24.8684 11.4815 24.4993 11.0353 24.0146 10.7504L25.3632 8.5024ZM20.3919 7.07128L22.9966 6.55037C23.201 7.02179 23.5512 7.41542 23.9955 7.67344L22.5438 10.093L20.0341 8.48272C20.2759 8.10306 20.4048 7.66257 20.4062 7.21252C20.4062 7.16416 20.3946 7.11889 20.3919 7.07128ZM23.6051 12.8109C23.6051 13.2526 23.2471 13.6106 22.8054 13.6106C22.3639 13.6101 22.0061 13.2524 22.0057 12.8109C22.0057 12.3692 22.3637 12.0111 22.8054 12.0111C23.2471 12.0111 23.6051 12.3692 23.6051 12.8109ZM18.0069 6.41279C18.4486 6.41279 18.8066 6.77081 18.8066 7.21252C18.8066 7.65422 18.4486 8.01224 18.0069 8.01224C17.5652 8.01224 17.2072 7.65422 17.2072 7.21252C17.2075 6.771 17.5654 6.41326 18.0069 6.41279ZM17.1364 9.44243C17.6237 9.64337 18.1661 9.66633 18.6687 9.50738L21.1379 11.0917C20.8751 11.3492 20.6751 11.6638 20.5536 12.011H17.0597C16.8851 11.516 16.5532 11.0917 16.1146 10.8034L17.1364 9.44243ZM14.8078 13.6106C14.3661 13.6106 14.0081 13.2526 14.0081 12.8109C14.0086 12.3693 14.3663 12.0115 14.8078 12.0111C15.2495 12.0111 15.6075 12.3692 15.6075 12.8109C15.6075 13.2526 15.2495 13.6106 14.8078 13.6106ZM17.2071 20.8084C16.7654 20.8084 16.4074 20.4503 16.4074 20.0087C16.4074 19.567 16.7654 19.2089 17.2071 19.2089C17.6488 19.2089 18.0068 19.567 18.0068 20.0087C18.0064 20.4502 17.6486 20.8079 17.2071 20.8084ZM17.6619 17.6553C17.5121 17.6255 17.3597 17.6101 17.2071 17.6093C17.1279 17.6093 17.0531 17.6251 16.9759 17.6327L15.8861 14.9423C16.4333 14.665 16.8533 14.1883 17.0597 13.6106H20.5535C20.6975 14.0134 20.9469 14.3702 21.2757 14.6438L17.6619 17.6553ZM23.7526 19.2088H19.4589C19.3735 18.9693 19.2503 18.7449 19.094 18.5444L23.0217 15.2712L24.3592 18.2711C24.0859 18.5314 23.8781 18.8528 23.7526 19.2088ZM25.0573 13.6106H26.9516C27.1405 14.1401 27.5096 14.5863 27.9943 14.8712L26.3315 17.6425C26.2233 17.6239 26.1142 17.6129 26.0045 17.6094C25.9426 17.6094 25.8844 17.6231 25.8235 17.6277L24.4506 14.5485C24.7239 14.288 24.9318 13.9666 25.0573 13.6106ZM26.0044 20.8084C25.5627 20.8084 25.2047 20.4503 25.2047 20.0087C25.2047 19.567 25.5628 19.2089 26.0044 19.2089C26.4461 19.2089 26.8041 19.567 26.8041 20.0087C26.8038 20.4502 26.4459 20.8079 26.0044 20.8084ZM29.4182 15.6065L31.6517 17.3933C31.3003 17.6932 31.0434 18.0886 30.9122 18.5315L28.2125 19.0714C28.1012 18.8159 27.9464 18.5817 27.7548 18.3792L29.4182 15.6065ZM30.8029 28.8059C30.3612 28.8059 30.0032 28.4479 30.0032 28.0062C30.0032 27.5645 30.3612 27.2065 30.8029 27.2065C31.2446 27.2065 31.6027 27.5645 31.6027 28.0062C31.6023 28.4477 31.2445 28.8055 30.8029 28.8059ZM34.0019 24.8072C34.0048 25.0744 34.0529 25.3392 34.1441 25.5903L32.794 26.6695C32.2893 25.8811 31.358 25.4758 30.437 25.6439L27.7819 21.6054C28.0191 21.3409 28.1942 21.0268 28.2944 20.6861L30.9941 20.1462C31.5088 21.3618 32.9097 21.9322 34.1271 21.4218L35.1137 22.7894C34.4226 23.2278 34.0033 23.9887 34.0019 24.8072ZM34.7808 17.4163L36.3068 13.601C36.3388 13.6023 36.3689 13.6106 36.4012 13.6106C36.4975 13.6068 36.5936 13.5971 36.6888 13.5815L37.6571 15.5132C36.8862 15.9292 36.4043 16.7334 36.4012 17.6094C36.4012 17.6418 36.4095 17.6719 36.4108 17.7041L35.3355 18.134C35.198 17.8617 35.0097 17.6181 34.7808 17.4163ZM36.4012 25.6069C35.9595 25.6069 35.6015 25.2489 35.6015 24.8072C35.6019 24.3657 35.9597 24.0078 36.4012 24.0075C36.8429 24.0075 37.2009 24.3655 37.2009 24.8072C37.2009 25.2489 36.8429 25.6069 36.4012 25.6069Z" fill="#012E78"/>
</g>
</g>
<defs>
<clipPath id="clip0">
<rect width="48" height="48" fill="white"/>
</clipPath>
</defs>
</svg>
