<svg width="13" height="13" viewBox="0 0 13 13" fill="none" xmlns="http://www.w3.org/2000/svg">
<path d="M7.4191 6.5L9.25795 4.6618C9.31834 4.60141 9.36625 4.52971 9.39893 4.45081C9.43161 4.3719 9.44844 4.28733 9.44844 4.20193C9.44844 4.11652 9.43161 4.03195 9.39893 3.95304C9.36625 3.87414 9.31834 3.80244 9.25795 3.74205C9.19756 3.68166 9.12586 3.63375 9.04696 3.60107C8.96805 3.56839 8.88348 3.55156 8.79807 3.55156C8.71267 3.55156 8.6281 3.56839 8.54919 3.60107C8.47029 3.63375 8.39859 3.68166 8.3382 3.74205L6.5 5.5809L4.6618 3.74205C4.53983 3.62008 4.37441 3.55156 4.20193 3.55156C4.02944 3.55156 3.86402 3.62008 3.74205 3.74205C3.62008 3.86402 3.55156 4.02944 3.55156 4.20193C3.55156 4.28733 3.56839 4.3719 3.60107 4.45081C3.63375 4.52971 3.68166 4.60141 3.74205 4.6618L5.5809 6.5L3.74205 8.3382C3.62008 8.46017 3.55156 8.62559 3.55156 8.79807C3.55156 8.97056 3.62008 9.13598 3.74205 9.25795C3.86402 9.37992 4.02944 9.44844 4.20193 9.44844C4.37441 9.44844 4.53983 9.37992 4.6618 9.25795L6.5 7.4191L8.3382 9.25795C8.46017 9.37992 8.62559 9.44844 8.79807 9.44844C8.97056 9.44844 9.13598 9.37992 9.25795 9.25795C9.37992 9.13598 9.44844 8.97056 9.44844 8.79807C9.44844 8.62559 9.37992 8.46017 9.25795 8.3382L7.4191 6.5ZM6.5 13C2.91005 13 0 10.0899 0 6.5C0 2.91005 2.91005 0 6.5 0C10.0899 0 13 2.91005 13 6.5C13 10.0899 10.0899 13 6.5 13Z" fill="#FF3D3D"/>
</svg>
